{"hash":"fa9d860a7f2ebb92c9ce9368322b3604a62daf50","data":{"posts":{"totalCount":2,"pageInfo":{"totalPages":2,"currentPage":2},"edges":[{"node":{"id":"44dc42bbe1efb2c6055acafb009ea1f7","title":"Hiragana","date":"October 24, 2020","summary":"This is a post about Hiragana","path":"/blog/hiragana/"}}]}},"context":{}}