{"hash":"fa9d860a7f2ebb92c9ce9368322b3604a62daf50","data":{"posts":{"totalCount":2,"pageInfo":{"totalPages":2,"currentPage":1},"edges":[{"node":{"id":"f23d131d9cd163ce409089dc451297e5","title":"Katakana","date":"October 24, 2020","summary":"This is a post about Katana","path":"/blog/katakana/"}}]}},"context":{}}